…
On first use, download the data and load it into a local SQL database:

``` r
cache_data()
load_sql_data()
```

Find available species:

``` r
get_species()
```

    ## # A tibble: 55 × 3
    ##    common_name         scientific_name        itis
    ##    <chr>               <chr>                 <dbl>
    ##  1 aleutian skate      bathyraja aleutica   160935
    ##  2 arrowtooth flounder atheresthes stomias  172862
    ##  3 big skate           raja binoculata      160848
    ##  4 bigfin eelpout      lycodes cortezianus  550588
    ##  5 bigmouth sculpin    hemitripterus bolini 167287
    ##  6 black eelpout       lycodes diapterus    165261
    ##  7 blackbelly eelpout  lycodes pacificus    630999
    ##  8 bocaccio            sebastes paucispinis 166733
    ##  9 canary rockfish     sebastes pinniger    166734
    ## 10 capelin             mallotus villosus    162035
    ## # ℹ 45 more rows
…
